
[
  {
    "ParameterKey": "1OSPeggedAMIID",
    "ParameterValue": "AlwaysUseLatest"
  },
  {
    "ParameterKey": "1OSInstanceOSPlatform",
    "ParameterValue": "Windows"
  },
  {
    "ParameterKey": "1OSPatchScope",
    "ParameterValue": "NoPatching"
  },
  {
    "ParameterKey": "9AWSRetrieveLatestAWSOSAmiIdFromSSM",
    "ParameterValue": "/aws/service/ami-windows-latest/Windows_Server-2019-English-Core-ContainersLatest"
  }, 
  {
    "ParameterKey": "3INSTConfigurationScript",
    "ParameterValue": "https://gitlab.com/guided-explorations/aws/gitlab-runner-autoscaling-aws-asg/-/raw/v1.4.8-alpha13/runner_configs/windows-shell.ps1"
  },
  {
    "ParameterKey": "4ASGDesiredCapacity",
    "ParameterValue": "2"
  },
  {
    "ParameterKey": "5ASGAutoScalingEnabled",
    "ParameterValue": "false"
  }, 
  {
    "ParameterKey": "5SPOTOnDemandPercentageAboveBaseCapacity",
    "ParameterValue": "100"
  },
  {
    "ParameterKey": "3GITLABRunnerTagList",
    "ParameterValue": ""
  },
  {
    "ParameterKey": "5ASGInstanceType1",
    "ParameterValue": "m5.large"
  },
  {
    "ParameterKey": "5ASGInstanceType2",
    "ParameterValue": ""
  },
  {
    "ParameterKey": "5ASGInstanceType3",
    "ParameterValue": ""
  },
  {
    "ParameterKey": "5ASGInstanceType4",
    "ParameterValue": ""
  },
  {
    "ParameterKey": "5ASGAutoScalingEnabled",
    "ParameterValue": "true"
  },
  {
    "ParameterKey": "5ASGAutoScalingMaxSize",
    "ParameterValue": "10"
  },
  {
    "ParameterKey": "5ASGAutoScalingMetricTypeToMonitor",
    "ParameterValue": "CPU"
  },
  {
    "ParameterKey": "5ASGAutoScalingSetScaleOutUtilizationThreshold",
    "ParameterValue": "70"
  },
  {
    "ParameterKey": "5ASGAutoScalingSetScaleOutUtilizationThresholdSeconds",
    "ParameterValue": "60"
  },
  {
    "ParameterKey": "5ASGAutoScalingSetScaleInUtilizationThreshold",
    "ParameterValue": "40"
  },
  {
    "ParameterKey": "5ASGAutoScalingSetScaleInUtilizationThresholdSeconds",
    "ParameterValue": "60"
  },
  {
    "ParameterKey": "5SPOTOnDemandBaseCapacity",
    "ParameterValue": "1"
  },
  {
    "ParameterKey": "5SPOTOnDemandPercentageAboveBaseCapacity",
    "ParameterValue": "50"
  },
  {
    "ParameterKey": "8DBGKeypairName",
    "ParameterValue": ""
  }  
]